Final Project
…
  select(Console,
         Title,
         "US Sales (millions)",
         YearReleased,
         Publisher,
         Genre,
         Sequel,
         Usedprice,
         "Review Score", 
         Handheld)
names(table)[3] <- "US_Sales"
names(table)[9] <- "ReviewScore"
table

## # A tibble: 1,770 x 10
##    Console  Title US_Sales YearReleased Publisher   Genre Sequel Usedprice
##    <chr>    <chr>    <dbl>        <int> <chr>       <chr>  <int>     <dbl>
##  1 Nintend Supe    4.69          2004 Nintendo A Acti      1     25.0 
##  2 Sony PSP Lumi    0.560         2004 Bandai Co. Stra      0     15.0 
##  3 Nintend Wari    0.540         2004 Nintendo A Acti      1     23.0 
##  4 Sony PSP Hot     0.490         2004 Sony Compu Spor      0     13.0 
##  5 Nintend Spid    0.450         2004 Activision Acti      1     15.0 
##  6 Nintend The     0.410         2004 Electronic Simu      1     13.0 
##  7 Sony PSP Ridg    0.360         2004 Namco Home Raci      1     20.0 
##  8 Sony PSP Meta    0.340         2004 Konami Cor Stra      0     18.0 
##  9 Nintend Madd    0.250         2004 Electronic Spor      1      8.95
## 10 Nintend "Pok    0.220         2004 Nintendo C Raci      0     25.0 
## # ... with 1,760 more rows, and 2 more variables: ReviewScore <int>,
## #   Handheld <int>
…
